{
    "app-id" : "org.gnome.zbrown.Noder",
    "runtime" : "org.gnome.Platform",
    "runtime-version" : "master",
    "sdk" : "org.gnome.Sdk",
    "command" : "noder",
    "finish-args" : [
        "--share=network",
        "--share=ipc",
        "--socket=x11",
        "--socket=wayland",
        "--device=dri",
        "--filesystem=xdg-run/dconf",
        "--filesystem=~/.config/dconf:ro",
        "--talk-name=ca.desrt.dconf",
        "--env=DCONF_USER_CONFIG_DIR=.config/dconf"
    ],
    "build-options" : {
        "cflags" : "-O2 -g",
        "cxxflags" : "-O2 -g",
        "env" : {
            "V" : "1"
        }
    },
    "cleanup" : [
        "/include",
        "/lib/pkgconfig",
        "/man",
        "/share/doc",
        "/share/gtk-doc",
        "/share/man",
        "/share/pkgconfig",
        "*.la",
        "*.a"
    ],
    "modules" : [
        {
            "name" : "gtk+",
            "buildsystem" : "meson",
            "builddir" : true,
            "config-opts" : [
                "--libdir=lib",
                "-Dintrospection=false",
                "-Ddemos=false",
                "-Dbuild-examples=false",
                "-Dbuild-tests=false"
            ],
            "sources" : [
                {
                    "type" : "git",
                    "url" : "https://gitlab.gnome.org/GNOME/gtk.git",
                    "branch" : "wip/otte/nodeeditor"
                }
            ],
            "cleanup" : [
                "/bin",
                "/include",
                "/lib/pkgconfig"
            ]
        },
        {
            "name" : "noder",
            "builddir" : true,
            "buildsystem" : "meson",
            "sources" : [
                {
                    "type" : "git",
                    "url" : "file:///home/zbrown/Projects/Apps/Noder"
                }
            ]
        }
    ]
}
